\relax 
\@writefile{toc}{\contentsline {section}{\numberline {1}Introduction}{\thepage }}
\newlabel{sec:introduction}{{1}{\thepage }}
\@writefile{toc}{\contentsline {section}{\numberline {2}Problem Statement}{\thepage }}
\newlabel{sec:problem_statement}{{2}{\thepage }}
\@writefile{toc}{\contentsline {section}{\numberline {3}{\relax \fontsize  {12}{14\p@ }\selectfont  VDE } Design}{\thepage }}
\newlabel{sec:system_architecture}{{3}{\thepage }}
\@writefile{toc}{\contentsline {subsection}{\numberline {3.1}{\relax \fontsize  {12}{14\p@ }\selectfont  VDE} Architecture Overview}{\thepage }}
\newlabel{subsec:overview}{{3.1}{\thepage }}
\@writefile{lof}{\contentsline {figure}{\numberline {1}{\ignorespaces VDE Architecture\relax }}{\thepage }}
\providecommand*\caption@xref[2]{\@setref\relax\@undefined{#1}}
\newlabel{fig:sys-arch}{{1}{\thepage }}
\@writefile{toc}{\contentsline {subsection}{\numberline {3.2}The Frontend}{\thepage }}
\newlabel{subsec:VDE_frontend}{{3.2}{\thepage }}
\@writefile{toc}{\contentsline {subsection}{\numberline {3.3}The Backend}{\thepage }}
\newlabel{subsec:VDE_backend}{{3.3}{\thepage }}
\bibstyle{abbrv}
\bibdata{visubib}
\@writefile{lof}{\contentsline {figure}{\numberline {2}{\ignorespaces VDE Frontend: Query Builder (left)\relax }}{\thepage }}
\newlabel{fig:frontend1}{{2}{\thepage }}
\@writefile{lof}{\contentsline {figure}{\numberline {3}{\ignorespaces VDE Vizualisation Panel\relax }}{\thepage }}
\newlabel{fig:frontend1}{{3}{\thepage }}
\@writefile{toc}{\contentsline {section}{\numberline {4}Demo Walkthrough}{\thepage }}
\newlabel{sec:demo-walkthrough}{{4}{\thepage }}
